<svg width="40" height="40" viewBox="0 0 40 40" fill="none" xmlns="http://www.w3.org/2000/svg">
<circle cx="20" cy="20" r="20"/>
<circle cx="20" cy="20" r="20" fill="#C4C4C4"/>
<mask id="mask0_1068:16577" style="mask-type:alpha" maskUnits="userSpaceOnUse" x="0" y="0" width="40" height="40">
<rect width="40" height="40" fill="#C4C4C4"/>
</mask>
<g mask="url(#mask0_1068:16577)">
<path fill-rule="evenodd" clip-rule="evenodd" d="M29 26.375V27.2C29 28.175 28.175 29 27.2 29H12.8C11.825 29 11 28.175 11 27.2V26.375C11 24.2 13.55 22.85 15.95 21.8L16.175 21.6875C16.3625 21.6125 16.55 21.6125 16.7375 21.725C17.7125 22.3625 18.8 22.7 19.9625 22.7C21.125 22.7 22.25 22.325 23.1875 21.725C23.375 21.6125 23.5625 21.6125 23.75 21.6875L23.975 21.8C26.45 22.85 29 24.1625 29 26.375ZM20 11C22.475 11 24.4625 13.2125 24.4625 15.95C24.4625 18.6875 22.475 20.9 20 20.9C17.525 20.9 15.5375 18.6875 15.5375 15.95C15.5375 13.2125 17.525 11 20 11Z" fill="white"/>
</g>
</svg>
