<svg xmlns="http://www.w3.org/2000/svg" width="26" height="26" viewBox="0 0 26 26">
  <g id="Group_229" data-name="Group 229" transform="translate(-5315 3547)">
    <rect id="Rectangle_311" data-name="Rectangle 311" width="26" height="26" rx="2" transform="translate(5315 -3547)" fill="#3c3c3c" opacity="0.711"/>
    <g id="flip" transform="translate(5337.729 -3542.193) rotate(90)">
      <path id="Path_40" data-name="Path 40" d="M0,15.716l6.434-5.362L0,5.1Z" transform="translate(0 0.369)" fill="#fff"/>
      <path id="Path_41" data-name="Path 41" d="M9,10.469l6.434,5.254V5Zm5.362,3-3.646-3,3.646-3.217Z" transform="translate(0.651 0.362)" fill="#fff"/>
      <path id="Path_42" data-name="Path 42" d="M7,5H8.072V6.072H7Z" transform="translate(0.506 0.362)" fill="#fff"/>
      <path id="Path_43" data-name="Path 43" d="M7,3H8.072V4.072H7Z" transform="translate(0.506 0.217)" fill="#fff"/>
      <path id="Path_44" data-name="Path 44" d="M7,7H8.072V8.072H7Z" transform="translate(0.506 0.506)" fill="#fff"/>
      <path id="Path_45" data-name="Path 45" d="M7,9H8.072v1.072H7Z" transform="translate(0.506 0.651)" fill="#fff"/>
      <path id="Path_46" data-name="Path 46" d="M7,11H8.072v1.072H7Z" transform="translate(0.506 0.796)" fill="#fff"/>
      <path id="Path_47" data-name="Path 47" d="M7,13H8.072v1.072H7Z" transform="translate(0.506 0.94)" fill="#fff"/>
      <path id="Path_48" data-name="Path 48" d="M7,15H8.072v1.072H7Z" transform="translate(0.506 1.085)" fill="#fff"/>
      <path id="Path_49" data-name="Path 49" d="M7.854,1.072h0a5.159,5.159,0,0,1,3.86,2.037l-1.18,1.18h3.217V1.072L12.466,2.359A6.115,6.115,0,0,0,7.854,0h0A6.343,6.343,0,0,0,2.6,3.11l.858.643A5.377,5.377,0,0,1,7.854,1.072Z" transform="translate(0.188)" fill="#fff"/>
    </g>
  </g>
</svg>
