<svg xmlns="http://www.w3.org/2000/svg" width="26" height="26" viewBox="0 0 26 26">
  <g id="Group_237" data-name="Group 237" transform="translate(-5395 3699)">
    <rect id="Rectangle_309" data-name="Rectangle 309" width="26" height="26" rx="2" transform="translate(5395 -3699)" fill="#3c3c3c" opacity="0.711"/>
    <g id="scale-screen" transform="translate(5396 -3698)">
      <path id="Path_215" data-name="Path 215" d="M79.846,61.667H75.259a.331.331,0,0,0-.234.565l1.727,1.727L64.772,76l-1.725-1.725a.331.331,0,0,0-.565.234v4.586a.33.33,0,0,0,.331.331H67.4a.331.331,0,0,0,.234-.565l-1.725-1.725,9.127-9.193,2.851-2.851,1.725,1.725a.331.331,0,0,0,.565-.234V62A.33.33,0,0,0,79.846,61.667Z" transform="translate(-59.345 -58.57)" fill="#fff"/>
      <path id="Path_216" data-name="Path 216" d="M22.119,0H1.881A1.881,1.881,0,0,0,0,1.881V22.119A1.881,1.881,0,0,0,1.881,24H22.119A1.881,1.881,0,0,0,24,22.119V1.881A1.881,1.881,0,0,0,22.119,0ZM22.4,22.119a.282.282,0,0,1-.281.281H1.881a.282.282,0,0,1-.281-.281V1.881A.282.282,0,0,1,1.881,1.6H22.119a.282.282,0,0,1,.281.281V22.119Z" fill="#fff"/>
    </g>
  </g>
</svg>
