<svg xmlns="http://www.w3.org/2000/svg" width="26" height="26" viewBox="0 0 26 26">
  <g id="Group_235" data-name="Group 235" transform="translate(-5395 3537)">
    <rect id="Rectangle_310" data-name="Rectangle 310" width="26" height="26" rx="13" transform="translate(5395 -3537)" fill="#3c3c3c" opacity="0.711"/>
    <g id="rotating-arrow-to-the-left" transform="translate(5414.386 -3530.707) rotate(90)">
      <path id="Path_34" data-name="Path 34" d="M6.88,18.391A6.878,6.878,0,0,1,1.905,6.762l-.4-.89c-.219-.492.1-.838.7-.775l3.56.373c.608.063.81.516.451,1.011l-2.1,2.9c-.359.495-.8.554-.99.132l-.34-.763a4.939,4.939,0,1,0,8.387.32.968.968,0,1,1,1.682-.959A6.881,6.881,0,0,1,6.88,18.391Z" transform="translate(0 -5.089)" fill="#fff"/>
    </g>
  </g>
</svg>
